/* XPM */
static char * volume1_xpm[] = {
"32 32 30 1",
" 	c None",
".	c #261600",
"+	c #0A0600",
"@	c #000000",
"#	c #3B2500",
"$	c #D38B00",
"%	c #F0A200",
"&	c #000101",
"*	c #ED9D00",
"=	c #F3A200",
"-	c #FCA800",
";	c #000002",
">	c #F7A500",
",	c #FFAB00",
"'	c #FFAA00",
")	c #F5A400",
"!	c #FCA900",
"~	c #010004",
"{	c #FDA900",
"]	c #000004",
"^	c #FDAA00",
"/	c #FDAB00",
"(	c #010005",
"_	c #FFA900",
":	c #000001",
"<	c #FCA700",
"[	c #F7A600",
"}	c #382500",
"|	c #D18B00",
"1	c #251800",
"                                ",
"                                ",
"                                ",
"                                ",
"                                ",
"                                ",
"                                ",
"                                ",
"             .                  ",
"           +@@                  ",
"          #$%@                  ",
"     &@@@@*=-@                  ",
"    ;>,,,')!'@                  ",
"    ~,''''{''@                  ",
"    ]^''/''''@                  ",
"    (',{'''''@                  ",
"    (,{{'''''@                  ",
"    (^'__''''@                  ",
"    ~,''__'''@                  ",
"    :>,,,,,<{@                  ",
"     @@@@@*[^@                  ",
"          }|'@                  ",
"           +@@                  ",
"             1                  ",
"                                ",
"                                ",
"                                ",
"                                ",
"                                ",
"                                ",
"                                ",
"                                "};
